Parentage and Phenotype Analysis
…
a,a mouth,a,a,a,a

How the heck do we tidy this data?!

filter the data frame

tidy_data <- parentage_data %>% 
  select(OFFSPRING_ID, locations)
separate_rows(tidy_data, locations, sep = ",") %>% 
  group_by(OFFSPRING_ID, locations) %>%
  mutate(count = n()) %>%
  distinct() %>%
  spread(locations, count)

## # A tibble: 668 x 7
## # Groups:   OFFSPRING_ID [668]
##    OFFSPRING_ID     a `a beach` `a mouth`     c `c beach` `c mouth`
##           <int> <int>     <int>     <int> <int>     <int>     <int>
##  1         7715     2        NA        NA    NA        NA        NA
##  2         7716     1        NA        NA    NA        NA        NA
##  3         7717     1        NA        NA    NA        NA        NA
##  4         7718     5        NA         1    NA        NA        NA
##  5         7719     2        NA        NA    NA        NA        NA
##  6         7720     3        NA        NA    NA        NA        NA
##  7         7721     2        NA         1    NA        NA        NA
##  8         7722     5        NA        NA    NA        NA        NA
##  9         7723     2        NA        NA    NA        NA        NA
## 10         7724     2        NA         2    NA        NA        NA
## # ... with 658 more rows
…
